modelName	ZimmerName	
4abut	gaba	
4abut	gaba	
ac	acetate	
allphn	allophanate	
amp	AMP	
asn-L	asparagine	
atp	ATP	
camp	cAMP	
chol	choline	
co2	CO2	
etoh	ethanol	
gal	galactose	
glc	glucose	
gln_L	glutamine	
glu_L	glutamate	
glyc	glycerol	
h2o2	H2O2	
inost	inositol	
lac_L	lactate	
NA	Ammonia	
NA	NO	
NA	NaCl	
NA	Phosphorus	source
NA	acrolein	
NA	arsenic	
NA	calcium	
NA	ethanal	
NA	nfcs	
NA	nitrogen	
NA	phosphate	
NA	selenite	
NA	sorbac	
NA	sugar	
o2	O2	
ocdcea	oleic_acid	
pheme	heme	
pro-L	Proline	
raffin	raffinose	
s	sulfur	
sbt_D	sorbitol	
sbt_L	sorbitol	
thm	thiamine	
nh4	ammonium	
succ	succinate	
ura	uracil	
lys_L	lysine	
leu_L	leucine	
his_L	histidine	
met_L	methionine	
